function rs:lucky_block/projects/items/list/lucky_boots
data modify entity @e[tag=give.item,limit=1,sort=nearest] PickupDelay set value 40s
summon area_effect_cloud ~ ~0.8 ~ {CustomName:'{"text":"§b你开出了§e幸运靴子"}',CustomNameVisible:1b,Duration:80}
kill @s[type=item]