function rs:lucky_block/projects/items/list/golden_chicken
data modify entity @e[tag=give.ite,limit=1,sort=nearest] PickupDelay set value 40s
summon area_effect_cloud ~ ~0.8 ~ {CustomName:'{"text":"§b你开出了§c疗效烤鸡§r"}',CustomNameVisible:1b,Duration:80}
kill @s[type=item]